{
    "g_name": "PINDOT LANG",
    "g_id": "842887536498180096",
    "g_systemChannelID": null,
    "g_ownerID": "700665243726250055",
    "c_info": [
        {
            "type": "category",
            "deleted": false,
            "id": "842887537131651115",
            "name": "Text Channels",
            "rawPosition": 0,
            "parentID": null,
            "permissionOverwrites": [],
            "guild": "842887536498180096",
            "createdTimestamp": 1621030448945
        },
        {
            "type": "category",
            "deleted": false,
            "id": "842887537131651116",
            "name": "Voice Channels",
            "rawPosition": 2,
            "parentID": null,
            "permissionOverwrites": [],
            "guild": "842887536498180096",
            "createdTimestamp": 1621030448945
        },
        {
            "type": "voice",
            "deleted": false,
            "id": "842887907328786513",
            "name": "Room 1",
            "rawPosition": 1,
            "parentID": "842887537131651116",
            "permissionOverwrites": [],
            "bitrate": 64000,
            "userLimit": 2,
            "guild": "842887536498180096",
            "createdTimestamp": 1621030537207
        },
        {
            "type": "voice",
            "deleted": false,
            "id": "842887934750490674",
            "name": "Room 2",
            "rawPosition": 2,
            "parentID": "842887537131651116",
            "permissionOverwrites": [],
            "bitrate": 64000,
            "userLimit": 10,
            "guild": "842887536498180096",
            "createdTimestamp": 1621030543745
        },
        {
            "type": "voice",
            "deleted": false,
            "id": "842887957722562580",
            "name": "Room 3",
            "rawPosition": 3,
            "parentID": "842887537131651116",
            "permissionOverwrites": [],
            "bitrate": 64000,
            "userLimit": 6,
            "guild": "842887536498180096",
            "createdTimestamp": 1621030549222
        },
        {
            "type": "text",
            "deleted": false,
            "id": "842888362871357451",
            "name": "other-games",
            "rawPosition": 4,
            "parentID": "842887537131651115",
            "permissionOverwrites": [],
            "topic": null,
            "nsfw": false,
            "lastMessageID": "855571877882888193",
            "rateLimitPerUser": 0,
            "lastPinTimestamp": null,
            "guild": "842887536498180096",
            "messages": [
                "854569854865637397",
                "854569886821777459",
                "854696503176462367",
                "855029527424139284",
                "855029849038389288",
                "855029911240835082",
                "855029973860876330",
                "855030000582262805",
                "855030012767371274",
                "855030024251637770",
                "855030088487796756",
                "855030104313167884",
                "855034990949564436",
                "855035055079555103",
                "855035074772729857",
                "855035086609186817",
                "855043398129680384",
                "855070090177282048",
                "855070098334679061",
                "855071282617647104",
                "855071330793947186",
                "855071334840139786",
                "855071345879941187",
                "855071381557608479",
                "855071408417144852",
                "855071417737019400",
                "855071494082396170",
                "855071524196843562",
                "855071537107173437",
                "855071542106914896",
                "855071644258664478",
                "855071647086018580",
                "855071696506322955",
                "855071729566613514",
                "855071749795610634",
                "855071767966121984",
                "855071777314701333",
                "855071781274386452",
                "855071808616005632",
                "855071834243334195",
                "855071842360098867",
                "855071852543344710",
                "855071873025179709",
                "855071886336851968",
                "855071896257298432",
                "855071899309965312",
                "855071913465741333",
                "855071929852493844",
                "855072218667810857",
                "855080187233697843",
                "855080204455772170",
                "855080214891331594",
                "855080448501350430",
                "855080467942735933",
                "855080573722558464",
                "855080608618512445",
                "855081880978587659",
                "855081887869304902",
                "855081902210023485",
                "855081933536755712",
                "855091205544738836",
                "855114870940762162",
                "855114937926942741",
                "855115038124802108",
                "855115653053022248",
                "855115678666588201",
                "855115698556764200",
                "855115708336701451",
                "855115732299022366",
                "855115749232607242",
                "855115833726599198",
                "855115854995914793",
                "855115867871903794",
                "855115871650316290",
                "855117546910908466",
                "855117620696842250",
                "855121265052352543",
                "855121276163325972",
                "855262562635218975",
                "855342774525100062",
                "855571877882888193"
            ],
            "createdTimestamp": 1621030645817
        },
        {
            "type": "text",
            "deleted": false,
            "id": "842888439287513088",
            "name": "anl-pvs-talk",
            "rawPosition": 1,
            "parentID": "842887537131651115",
            "permissionOverwrites": [],
            "topic": null,
            "lastMessageID": "858443572843511838",
            "rateLimitPerUser": 0,
            "lastPinTimestamp": null,
            "guild": "842887536498180096",
            "messages": [
                "858056680947974145",
                "858056685682819082",
                "858056701869555722",
                "858056735703957504",
                "858056767069880332",
                "858056803254140938",
                "858056813302513714",
                "858056856114692107",
                "858056873994485810",
                "858056927258738770",
                "858056935810924544",
                "858056980965621820",
                "858056996216242196",
                "858057006337622037",
                "858057012243595314",
                "858057021201973280",
                "858057039623618570",
                "858057106207801364",
                "858057115461877791",
                "858057137053630514",
                "858057207308746812",
                "858057235917832212",
                "858057240862392361",
                "858057255114768384",
                "858057285876449331",
                "858057319728021564",
                "858057358033682432",
                "858057383112474646",
                "858057411809771540",
                "858057640087912470",
                "858057667774775316",
                "858057672360460319",
                "858057676734464000",
                "858057681796202527",
                "858057690310508575",
                "858057695533465600",
                "858057722254589992",
                "858057751280353350",
                "858057758888427520",
                "858057767558578216",
                "858057796573986816",
                "858057810629754890",
                "858057824294797342",
                "858057887486312508",
                "858057952475742240",
                "858057959124631583",
                "858057990091177984",
                "858058012463464448",
                "858058247176192011",
                "858058284710756433",
                "858058289505107978",
                "858058345881796608",
                "858058415556395029",
                "858058426226311219",
                "858058442915577876",
                "858058452260880424",
                "858058660822646840",
                "858058707484147732",
                "858064876794413116",
                "858089234354536468",
                "858097027953852457",
                "858097049823215659",
                "858103238228967474",
                "858105404331786240",
                "858105494518628373",
                "858106322922242129",
                "858106779308392548",
                "858108956656402472",
                "858109460135542795",
                "858109937720361000",
                "858114320683237406",
                "858114581058682890",
                "858115654262456351",
                "858115692120768522",
                "858115708315238421",
                "858115735497998336",
                "858115863155703828",
                "858270084517593088",
                "858401074318802956",
                "858401103376285706",
                "858401145721847808",
                "858401336894554172",
                "858403268027219978",
                "858403296191840266",
                "858403494599065620",
                "858403517081452564",
                "858416749279707178",
                "858416824173330432",
                "858416885447000065",
                "858416901675155476",
                "858416904376549396",
                "858417043631243275",
                "858423448590090310",
                "858424327870349362",
                "858425816211521606",
                "858425856674234378",
                "858425886608064512",
                "858428710520225802",
                "858428717470580746",
                "858428998991740938",
                "858429028339941377",
                "858430011786133515",
                "858430061245366303",
                "858430083927375902",
                "858430189860421672",
                "858430212702470186",
                "858430328359878656",
                "858430471569539113",
                "858430506813882399",
                "858430538712219702",
                "858430705092657152",
                "858430716131147799",
                "858430786037743626",
                "858430788499931136",
                "858431178062168104",
                "858432421380620318",
                "858432426958389308",
                "858435815109296128",
                "858435994092175360",
                "858436059162345532",
                "858436111734538310",
                "858436116872036412",
                "858436161571389450",
                "858436336629448714",
                "858436357966135306",
                "858436432741269524",
                "858436452458823730",
                "858436457545990165",
                "858436524625231883",
                "858436538240991242",
                "858436717848428554",
                "858436739017867274",
                "858436746689642546",
                "858436751973679154",
                "858436758550872074",
                "858436767950962748",
                "858436785175265321",
                "858436836267261963",
                "858436848724344842",
                "858436933259362314",
                "858436970828791818",
                "858436999052525668",
                "858437022116741130",
                "858437061547655168",
                "858437065820733453",
                "858437113142050867",
                "858437135938224138",
                "858437167034400829",
                "858437173883043841",
                "858437183169101844",
                "858437193181429760",
                "858437204744339456",
                "858437211724316733",
                "858437216644497419",
                "858437222755467324",
                "858437222948667464",
                "858437232238919712",
                "858437246633377826",
                "858437257378660372",
                "858437372316352552",
                "858437379072983080",
                "858437386899816518",
                "858437398332178462",
                "858437406238965761",
                "858437411347628033",
                "858437432209702912",
                "858437437972807730",
                "858437519372189727",
                "858437524115685447",
                "858437580072812594",
                "858437640234598400",
                "858437940480966656",
                "858438022083903508",
                "858438045179314207",
                "858438052425629757",
                "858438259951534111",
                "858438263316545538",
                "858438271616417814",
                "858438292349386794",
                "858438296382996480",
                "858438305430765588",
                "858438326557474856",
                "858438345193291796",
                "858438509072482314",
                "858438514676465684",
                "858438582531522591",
                "858438608595976263",
                "858438620470050836",
                "858438703701032991",
                "858438754700492800",
                "858438997741928458",
                "858441986289434634",
                "858441995843272725",
                "858443404072845330",
                "858443429657837580",
                "858443434527555604",
                "858443437686784011",
                "858443546780368907",
                "858443555121922059",
                "858443572843511838"
            ],
            "nsfw": false,
            "createdTimestamp": 1621030664036
        },
        {
            "type": "text",
            "deleted": false,
            "id": "847345980580036640",
            "name": "memes",
            "rawPosition": 6,
            "parentID": "842887537131651115",
            "permissionOverwrites": [],
            "topic": null,
            "nsfw": false,
            "lastMessageID": "858432031184650240",
            "rateLimitPerUser": 0,
            "lastPinTimestamp": null,
            "guild": "842887536498180096",
            "messages": [
                "854474548589101096",
                "854532916658962443",
                "854555978552442901",
                "854562164936146984",
                "854562181784666114",
                "854571875165274113",
                "854574407552860200",
                "854582459361919016",
                "854652217369034752",
                "854783426313977907",
                "854822145166147584",
                "854822658915303484",
                "854843162911703040",
                "854852043423744032",
                "854855224107728916",
                "854855237503811605",
                "854855350459957268",
                "854855354890059776",
                "854855464620785674",
                "854875301033279490",
                "854943040162365470",
                "854943135603884062",
                "854943154539855883",
                "854943179353882666",
                "854943203321053224",
                "854943216432578641",
                "854943886543159297",
                "854943921057562634",
                "854943984475176990",
                "854944757649899520",
                "854963706600751144",
                "855044576950616085",
                "855044623517220894",
                "855104669889462282",
                "855282723223633941",
                "855362517827059712",
                "855546912689618985",
                "855561658558185514",
                "855561762882453504",
                "855584038336856094",
                "855584047366144010",
                "855599322128842752",
                "855608404260290570",
                "855608493171933184",
                "855614019149889546",
                "855614047436931122",
                "855614189777977354",
                "855616381026435082",
                "855619301330255892",
                "855620483058892830",
                "855622741787803738",
                "855640158467653642",
                "855695946419011594",
                "855698989211058197",
                "855699228672262155",
                "855699232329433099",
                "855708521572466748",
                "855918002428182589",
                "856242719436177459",
                "856277854814863420",
                "856296240915415080",
                "856313819583479808",
                "856408898784854047",
                "856436198943490068",
                "856688840805580811",
                "856689079135502346",
                "856738647537483786",
                "856738782756470815",
                "856738804223180862",
                "856738811392294942",
                "856738833952669726",
                "856739638450454560",
                "856767424237273088",
                "856813612370886727",
                "856831139381379073",
                "856835429009195008",
                "856856584096710657",
                "857036490629709874",
                "857050292629274635",
                "857094522386776094",
                "857094859764006952",
                "857095049267249152",
                "857123464401780737",
                "857150781614325780",
                "857150799041134592",
                "857387105155153920",
                "857394778937360406",
                "857394991570485250",
                "857501316074831882",
                "857502644222558209",
                "857502694877167646",
                "857514829405618196",
                "857522721894039552",
                "857522753107787797",
                "857538999396073483",
                "857539872922927125",
                "857539896923389983",
                "857764651214831638",
                "857895884262735884",
                "857895923883049000",
                "857897112259657740",
                "858335574238429204",
                "858416670443962448",
                "858417263416967229",
                "858426661976277033",
                "858428977248731136",
                "858431216046702642",
                "858432031184650240"
            ],
            "createdTimestamp": 1622093424697
        },
        {
            "type": "text",
            "deleted": false,
            "id": "847345981393600522",
            "name": "hugot",
            "rawPosition": 5,
            "parentID": "842887537131651115",
            "permissionOverwrites": [],
            "topic": null,
            "nsfw": false,
            "lastMessageID": "857431629374029844",
            "rateLimitPerUser": 0,
            "lastPinTimestamp": null,
            "guild": "842887536498180096",
            "messages": [
                "854408294365003847",
                "856252320756924426",
                "856844057572802591",
                "856844066510864395",
                "856844451783770122",
                "856844801105985556",
                "856844912141271090",
                "856844974834188309",
                "856844981603270706",
                "856845181429219338",
                "856845279269355520",
                "856845334675193868",
                "856861657652920360",
                "856862367577407488",
                "856871755939446795",
                "856882992361897984",
                "856976239553544202",
                "856976911745286154",
                "857382784162594836",
                "857403925715877908",
                "857431629374029844"
            ],
            "createdTimestamp": 1622093424891
        },
        {
            "type": "text",
            "deleted": false,
            "id": "850939892179402772",
            "name": "bot-commands",
            "rawPosition": 8,
            "parentID": "854364355406594068",
            "permissionOverwrites": [],
            "topic": null,
            "nsfw": false,
            "lastMessageID": "858402403506585650",
            "rateLimitPerUser": 0,
            "lastPinTimestamp": null,
            "guild": "842887536498180096",
            "messages": [
                "855508666362626139",
                "855508668887728128",
                "855508669449109504",
                "855508671844974622",
                "855509510452805703",
                "855509511090470982",
                "855509513687400468",
                "855511022369898496",
                "855511025298309210",
                "855511025898094592",
                "855512337532452895",
                "855512337758552086",
                "855512341831745556",
                "855512870213386250",
                "855512870250086431",
                "855512951430447174",
                "855512951648419851",
                "855531520042729483",
                "855531523243245648",
                "855531524115922974",
                "855531526804209695",
                "855531645855989770",
                "855531645984309300",
                "855570326981050398",
                "855570328989204490",
                "855570329258295357",
                "855570331375894548",
                "855570431830523954",
                "855570432240123914",
                "855570479423422474",
                "855570479933816852",
                "855570483046514709",
                "855570788123803668",
                "855570788278206506",
                "855570791412269069",
                "855828098284519434",
                "855828100935581757",
                "855828101412814849",
                "855828104585150524",
                "856082856153579551",
                "856082858632675358",
                "856082858967564299",
                "856082861375225866",
                "856274749440131099",
                "856274751374098452",
                "856274752007307324",
                "856274753647149097",
                "856510967717822504",
                "856510969924812830",
                "856510970762493982",
                "856510972725690388",
                "856511276523192360",
                "856511276951535626",
                "856511279971827712",
                "856511284224065556",
                "856511295268192256",
                "856511359054118943",
                "856511364575002644",
                "856511388071493632",
                "856511396585537587",
                "856511406336507915",
                "856511414708600892",
                "856511436875759628",
                "856511459604299806",
                "856511460069736458",
                "856511462407143434",
                "856513153546584094",
                "856513239469785089",
                "856513300706754570",
                "856513328468852738",
                "856513341321117697",
                "856513341911334912",
                "856513343836520468",
                "856513396673085442",
                "856513477056397342",
                "856513483537645569",
                "856513638990872577",
                "856513639522238464",
                "856513641889267743",
                "856513753826983966",
                "856513754346815527",
                "856513757684695090",
                "856514152037875733",
                "856515142418038784",
                "856515142863028225",
                "856516151185244181",
                "856516151839686726",
                "856516154566377523",
                "856517973431025674",
                "856517973823848459",
                "856517976676630539",
                "856518001229692968",
                "856518012769140767",
                "856518013028139029",
                "856518144024772619",
                "856518144218365954",
                "856518146840330280",
                "856519095435395113",
                "856519096182374400",
                "856519098149109771",
                "856519121897390081",
                "856519142068977675",
                "856519798497214485",
                "856519799278141470",
                "856522939021524992",
                "856522940807512085",
                "856522942039982090",
                "856522944385253376",
                "856523317845295125",
                "856523318533029889",
                "856523321407701002",
                "856686293525463050",
                "856686296062885918",
                "856686296150835211",
                "856686300459171860",
                "856687375845687316",
                "856687375873474581",
                "856687378206556211",
                "856688977280368681",
                "856688977804001301",
                "856688980760985660",
                "856689585034493972",
                "856689585755783178",
                "856689588626128966",
                "856690986566287361",
                "856690986888200223",
                "856690989502038086",
                "856691054308098088",
                "856691054747975680",
                "856691058436341770",
                "856769521868210186",
                "856769523079839753",
                "856769523922763786",
                "856769526347202590",
                "856769762867937291",
                "856769762838839307",
                "856769766500073473",
                "857384915267616828",
                "857384916793819167",
                "857384917577760808",
                "857384920665686086",
                "857385103725166654",
                "857385104384720926",
                "857385107748683796",
                "857385266686722049",
                "857385267126992916",
                "857385270696476702",
                "857387758006829086",
                "857387758523121684",
                "857387761446551562",
                "857388373067825173",
                "857388373135458321",
                "857388376335581196",
                "857389670342459392",
                "857389670420971552",
                "857389674473848872",
                "857392472120360980",
                "857392472611094538",
                "857392475721957397",
                "857393049544818688",
                "857393049981943848",
                "857393052620292097",
                "857393978805977109",
                "857393979384135681",
                "857393982191828993",
                "857395124552073236",
                "857395124915666985",
                "857395128762105857",
                "857689089482686495",
                "857689092573757470",
                "857689093118361650",
                "857689095005012000",
                "857774435213377586",
                "857774436446371840",
                "857774437033443338",
                "857774439704559667",
                "858156717232357387",
                "858156719750250520",
                "858156720659759104",
                "858156723214221352",
                "858157852584574996",
                "858157853356457984",
                "858157855756648448",
                "858158264146984991",
                "858158264923848745",
                "858158265656279060",
                "858161199907733534",
                "858161200314449950",
                "858161203707379722",
                "858162890283155466",
                "858162890778083378",
                "858162894289633310",
                "858162903608852511",
                "858162904158175243",
                "858162907271528489",
                "858164241026252841",
                "858402399122096188",
                "858402400334512128",
                "858402401014513664",
                "858402403506585650"
            ],
            "createdTimestamp": 1622950279994
        },
        {
            "type": "text",
            "deleted": false,
            "id": "851473442929901639",
            "name": "phasmophobia-talk",
            "rawPosition": 2,
            "parentID": "842887537131651115",
            "permissionOverwrites": [],
            "topic": null,
            "nsfw": false,
            "lastMessageID": "854822283833770034",
            "rateLimitPerUser": 0,
            "lastPinTimestamp": 1623140170000,
            "guild": "842887536498180096",
            "messages": [
                "854821835328716810",
                "854822283833770034"
            ],
            "createdTimestamp": 1623077488406
        },
        {
            "type": "text",
            "deleted": false,
            "id": "852725120056557649",
            "name": "general-chatroom",
            "rawPosition": 0,
            "parentID": "842887537131651115",
            "permissionOverwrites": [],
            "topic": null,
            "nsfw": true,
            "lastMessageID": "858353023141937172",
            "rateLimitPerUser": 0,
            "lastPinTimestamp": 1624662001000,
            "guild": "842887536498180096",
            "messages": [
                "858115472515661874",
                "858115628011225169",
                "858115649221689404",
                "858115697291558913",
                "858115766338453504",
                "858115779126624298",
                "858115781123375124",
                "858115858064080926",
                "858115865613959189",
                "858115938780184598",
                "858115957763604500",
                "858115984229269545",
                "858116027861696512",
                "858116057391038474",
                "858116076533710898",
                "858116104006008844",
                "858116115539951658",
                "858116146477531177",
                "858116170972790785",
                "858116285811916841",
                "858116294054510633",
                "858116511642288148",
                "858116568177573899",
                "858116589471531025",
                "858116642072166450",
                "858116644273258497",
                "858116645464309771",
                "858116655716368415",
                "858116703330369607",
                "858116714415915078",
                "858116897454030859",
                "858117016087298050",
                "858117065298280458",
                "858117228385009665",
                "858117567801851994",
                "858117575149355028",
                "858117575878508565",
                "858117592783126569",
                "858117612084264961",
                "858117695312756776",
                "858117700513169408",
                "858117703143129138",
                "858117710885290005",
                "858117717118812180",
                "858117754573684756",
                "858117788312141845",
                "858117833535389696",
                "858117848622039040",
                "858117876194869278",
                "858117879945887755",
                "858117978675347456",
                "858118001336647690",
                "858118018609709086",
                "858118018961506314",
                "858118052306223114",
                "858118060505169950",
                "858118076499492864",
                "858118114416001024",
                "858118164726415380",
                "858118164873609237",
                "858118172178644992",
                "858118228093173801",
                "858118240198197258",
                "858118271278252052",
                "858118315691999253",
                "858118338906816543",
                "858118375481540608",
                "858118379977703425",
                "858118380808830976",
                "858118394155237377",
                "858118401390018590",
                "858118438516817920",
                "858118458554318848",
                "858118526127570944",
                "858118546349752370",
                "858118574057324584",
                "858118602167549983",
                "858118633371861022",
                "858118640703766548",
                "858118642746392606",
                "858118657297350666",
                "858118663604535306",
                "858118694270009375",
                "858118694609616908",
                "858118707658358844",
                "858118715874476072",
                "858118725957189633",
                "858118737579212870",
                "858118750222024705",
                "858118778823245855",
                "858118791274430487",
                "858118795973099530",
                "858118798052425758",
                "858118808517738498",
                "858118816110084137",
                "858118843125989396",
                "858118872425824277",
                "858118877598973962",
                "858118948531994644",
                "858118949127454721",
                "858118958476165172",
                "858118969679282207",
                "858119052270239756",
                "858119083719393290",
                "858119249977016321",
                "858119257908445184",
                "858119259153891378",
                "858119277433716766",
                "858119301327224833",
                "858119337932226570",
                "858119338611310623",
                "858119340904415252",
                "858119349315174481",
                "858119372853346324",
                "858119404680380426",
                "858119417710641192",
                "858119418739294249",
                "858119428398383116",
                "858119433783869440",
                "858119458442706975",
                "858119483025915934",
                "858119491975643157",
                "858119494780977192",
                "858119513567526912",
                "858119515262156810",
                "858119518672388116",
                "858119529892282389",
                "858119537898553375",
                "858119567921512470",
                "858119572465254401",
                "858119599773974528",
                "858119599911206973",
                "858119603394052156",
                "858119610292895745",
                "858119625820995625",
                "858119658619273236",
                "858119659429167145",
                "858119680418119700",
                "858119683441819658",
                "858119712511623168",
                "858119744115572756",
                "858119747722543114",
                "858119760679010345",
                "858119765712044043",
                "858119776935870464",
                "858119781134762065",
                "858119782276923412",
                "858119818598809630",
                "858119834461274203",
                "858119863813275648",
                "858119909909594133",
                "858119986198872104",
                "858120009687367700",
                "858120072626831360",
                "858120110954643497",
                "858120120261410849",
                "858120141040910346",
                "858120174317862916",
                "858120249907085332",
                "858120252737716285",
                "858120258934013962",
                "858120399187738644",
                "858120418216116226",
                "858120432682270722",
                "858120440530206730",
                "858120452186963978",
                "858120464878141470",
                "858120471081386015",
                "858120475892645969",
                "858120488793669682",
                "858120524345770025",
                "858120526975336468",
                "858120530699616256",
                "858120531903512577",
                "858120541285253130",
                "858120560755081216",
                "858120606654136342",
                "858120794919927818",
                "858120804838408232",
                "858121123941974066",
                "858121197623312444",
                "858121296721477632",
                "858122967733239868",
                "858123216103014461",
                "858123336172175380",
                "858124176078143529",
                "858124988234203166",
                "858124995656941618",
                "858125024232472656",
                "858125075533660201",
                "858125085365895238",
                "858125818735230989",
                "858125995898830898",
                "858127170278260776",
                "858127182513963048",
                "858127187625377802",
                "858127431508164658",
                "858127524319723541",
                "858352903937064968",
                "858353023141937172"
            ],
            "createdTimestamp": 1623375911488
        },
        {
            "type": "text",
            "deleted": false,
            "id": "854364265116205087",
            "name": "anl-rounds",
            "rawPosition": 7,
            "parentID": "854364355406594068",
            "permissionOverwrites": [],
            "topic": null,
            "nsfw": false,
            "lastMessageID": "858497696340246569",
            "rateLimitPerUser": 0,
            "lastPinTimestamp": 1623766771000,
            "guild": "842887536498180096",
            "messages": [
                "854364479843598346",
                "854364506616102922",
                "854364544821624842",
                "854364547103457280",
                "854364570370048011",
                "854364571635548160",
                "854375541619425280",
                "854375966431510549",
                "854375967804227584",
                "854385105124589578",
                "854385107700154418",
                "854385108210417704",
                "854385119905316914",
                "854431137471660092",
                "854431138475278376",
                "854431187305234442",
                "854431278631354398",
                "854431334276923393",
                "854431345165598790",
                "854431538594185246",
                "854431586299805726",
                "854431613315711036",
                "854454067359383612",
                "854474997280407592",
                "854475018028974090",
                "854475036927721474",
                "854475038027677727",
                "854475184034938890",
                "854475184642850877",
                "854511164654354442",
                "854511165404348436",
                "854511988260601876",
                "854511988691697735",
                "854511990994632704",
                "854659580876685343",
                "854659582134976522",
                "854665172823179274",
                "854665173335801877",
                "854665222576275468",
                "854665223301627914",
                "854844900922228737",
                "854844903351386122",
                "854844922896449547",
                "854844965280284692",
                "854867386162085889",
                "854998744755732491",
                "854998781350903818",
                "854998782672502804",
                "855000417221345290",
                "855000418337816577",
                "855000441489195029",
                "855000442279034922",
                "855000592757424138",
                "855000942436417556",
                "855001028210458665",
                "855286752847855616",
                "855286754844213267",
                "855332713904865291",
                "855332715250974731",
                "856311533847052338",
                "856311537156751360",
                "856356837866602516",
                "856356839066959912",
                "856356914304778290",
                "856356914932744243",
                "856356998236209192",
                "856358100679393300",
                "856358101312864286",
                "856651211452710973",
                "856651213437141013",
                "856651214179794945",
                "856651217262608444",
                "856651262124490802",
                "856651262242324501",
                "856651265371275335",
                "856651291387363358",
                "856651291772846090",
                "856651294830493736",
                "857277782388244563",
                "857277783948787713",
                "858061098813358173",
                "858061099944116224",
                "858061118870519808",
                "858061123163914300",
                "858061150812635146",
                "858061151732891719",
                "858061854538858567",
                "858063443906920448",
                "858063466735992855",
                "858063477440118844",
                "858063495165902849",
                "858063574072164393",
                "858063627584274483",
                "858063633572954142",
                "858063678296555541",
                "858063694385643569",
                "858285917756588032",
                "858285919445975070",
                "858474463899942912",
                "858474465050492958",
                "858474482733809664",
                "858474483454443560",
                "858474501297012757",
                "858474502382944336",
                "858497568358269010",
                "858497569486929970",
                "858497587525713961",
                "858497588428800010",
                "858497601850572840",
                "858497602495447082",
                "858497621424603148",
                "858497622281289728",
                "858497696340246569"
            ],
            "createdTimestamp": 1623766714124
        },
        {
            "type": "category",
            "deleted": false,
            "id": "854364355406594068",
            "name": "BOT CORNER",
            "rawPosition": 1,
            "parentID": null,
            "permissionOverwrites": [],
            "guild": "842887536498180096",
            "createdTimestamp": 1623766735651
        },
        {
            "type": "text",
            "deleted": false,
            "id": "854581170757959690",
            "name": "valorant-talk",
            "rawPosition": 3,
            "parentID": "842887537131651115",
            "permissionOverwrites": [],
            "topic": null,
            "nsfw": false,
            "lastMessageID": "858401108409843732",
            "rateLimitPerUser": 0,
            "lastPinTimestamp": null,
            "guild": "842887536498180096",
            "messages": [
                "855209678320697364",
                "855213809576181791",
                "855217266794168350",
                "855236231645364264",
                "855236244045168640",
                "855245981721690163",
                "855357091010576394",
                "855357111877500929",
                "855366837084880907",
                "855368962345533441",
                "855369058006466582",
                "855369110241017867",
                "855369123616784384",
                "855369174845751317",
                "855369246060838932",
                "855369256434139146",
                "855369265951408128",
                "855369291175297044",
                "855369313279803392",
                "855369348670816256",
                "855369516091703357",
                "855369884258402304",
                "855369895302266881",
                "855369928549859330",
                "855369976063328278",
                "855370112314638337",
                "855370426967654410",
                "855370453596766221",
                "855370513319460864",
                "855370532812095488",
                "855370556374515712",
                "855370576340451328",
                "855391138344206346",
                "855530912771342347",
                "855531151446507601",
                "855563870088724520",
                "855563908441702471",
                "855566327787159613",
                "855566395663712297",
                "855566398888345610",
                "855566407227932723",
                "855566475267407911",
                "855567145135243294",
                "855567406834516009",
                "855570296693325825",
                "855658649347555368",
                "855658670598520862",
                "855658673665605642",
                "856001777647616041",
                "856002220108414987",
                "856003177529475102",
                "856003203644129340",
                "856003414060040212",
                "856003447592845343",
                "856003467948851210",
                "856016694836854786",
                "856016767435931658",
                "856016777226223626",
                "856016785820483614",
                "856016825154142238",
                "856016849288298526",
                "856016859236007986",
                "856016899049127956",
                "856016917634351134",
                "856017377497186314",
                "856017385559162911",
                "856017581185564672",
                "856017625045532673",
                "856036988310388737",
                "856042567468318752",
                "856042579028082719",
                "856042953943416837",
                "856044267037130772",
                "856044318594957363",
                "856045886379261952",
                "856045898987733022",
                "856045934914568213",
                "856045938514722876",
                "856055618456518676",
                "856065532444540928",
                "856069218809675786",
                "856069244873080852",
                "856086194605785088",
                "856687386045579314",
                "856690234959331358",
                "856701499810512916",
                "856730193246945310",
                "856730224200253480",
                "856730285311656026",
                "856730301987946496",
                "856816395253317632",
                "856816402647089203",
                "857052572128509982",
                "857052593175003138",
                "857052666152484894",
                "857052698683637820",
                "857052778885939200",
                "857052830312431617",
                "857058369705738264",
                "857060422711902259",
                "857069859295985705",
                "857077777417109524",
                "857077805947158549",
                "857078693955239936",
                "857078704584654880",
                "857078725639798784",
                "857079387911749692",
                "857079393745502208",
                "857082834416828416",
                "857082835835682836",
                "857087916400836608",
                "857087985173397524",
                "857088041587310593",
                "857088066517598240",
                "857164485793677352",
                "857165345135788033",
                "857165352890925086",
                "857165533547462666",
                "857167304923938837",
                "857167515221360670",
                "857167527103823882",
                "857167594251223061",
                "857167627633557505",
                "857205118968266813",
                "857503406717141062",
                "857503445820375041",
                "857512757535309834",
                "857517125216632832",
                "857517149082091530",
                "857518215786004550",
                "857518218860429312",
                "857518229761425428",
                "857601671453605908",
                "857601683416154133",
                "857742295821975552",
                "857744301886144512",
                "857744466919161896",
                "857744480241057862",
                "857744526629535775",
                "857745744978378772",
                "857745754557775923",
                "857745768168816661",
                "857745938737922089",
                "857745981611966535",
                "857745991809630260",
                "857746125545013278",
                "857746906378010634",
                "857746947288858645",
                "857749132508004372",
                "857749162195943495",
                "857749171339657236",
                "857790939695022110",
                "857791024781066245",
                "857791033818611742",
                "857791059794591785",
                "857791069559455775",
                "857791082141843489",
                "857791096050286642",
                "857797078443753492",
                "857797896057782292",
                "857797952794001458",
                "857798071156867082",
                "857798113321025536",
                "857799816821866566",
                "857800307941834802",
                "857800318737842236",
                "857806806629744650",
                "857806827802853386",
                "857816976340156446",
                "857826219998576650",
                "857826241607368714",
                "857826262437330997",
                "857826273093877771",
                "857826426970177576",
                "857833941322432523",
                "858147650653388860",
                "858147656022884372",
                "858147660498468875",
                "858173737455321120",
                "858176749363658763",
                "858237779213025290",
                "858386568163098716",
                "858386573942718484",
                "858386891304337408",
                "858386943679135766",
                "858386962456510535",
                "858387833491685383",
                "858387884742803467",
                "858394468537729024",
                "858394493764763648",
                "858394502020464651",
                "858397465722880071",
                "858399654420021248",
                "858399678655365130",
                "858400852566212608",
                "858400857497403392",
                "858400869829050388",
                "858400894051811328",
                "858401094639681596",
                "858401108409843732"
            ],
            "createdTimestamp": 1623818428459
        },
        {
            "type": "voice",
            "deleted": false,
            "id": "855000541050699836",
            "name": "Music Room 1",
            "rawPosition": 0,
            "parentID": "842887537131651116",
            "permissionOverwrites": [],
            "bitrate": 64000,
            "userLimit": 0,
            "guild": "842887536498180096",
            "createdTimestamp": 1623918414128
        },
        {
            "type": "voice",
            "deleted": false,
            "id": "856971338001285120",
            "name": "AFK (DND)",
            "rawPosition": 4,
            "parentID": "842887537131651116",
            "permissionOverwrites": [
                "842887536498180096"
            ],
            "bitrate": 64000,
            "userLimit": 0,
            "guild": "842887536498180096",
            "createdTimestamp": 1624388288737
        }
    ]
}