{
    "g_name": "VIRGINS 2.0",
    "g_id": "752945682641322062",
    "g_systemChannelID": "752945684705050626",
    "g_ownerID": "382922598868058112",
    "c_info": [
        {
            "type": "category",
            "deleted": false,
            "id": "752945684705050624",
            "name": "Text Channels",
            "rawPosition": 1,
            "parentID": null,
            "permissionOverwrites": [],
            "guild": "752945682641322062",
            "createdTimestamp": 1599586640288
        },
        {
            "type": "category",
            "deleted": false,
            "id": "752945684705050625",
            "name": "Voice Channels",
            "rawPosition": 2,
            "parentID": null,
            "permissionOverwrites": [],
            "guild": "752945682641322062",
            "createdTimestamp": 1599586640288
        },
        {
            "type": "text",
            "deleted": false,
            "id": "752945684705050626",
            "name": "main-chat",
            "rawPosition": 1,
            "parentID": "752945684705050624",
            "permissionOverwrites": [],
            "topic": null,
            "nsfw": false,
            "lastMessageID": "823953489176035378",
            "rateLimitPerUser": 0,
            "lastPinTimestamp": null,
            "guild": "752945682641322062",
            "messages": [
                "822005984603275315",
                "822006122536894485",
                "822006165772697600",
                "822006178661531679",
                "822006199775526933",
                "822006239864553502",
                "822006249264119828",
                "822006299158904833",
                "822006627379970088",
                "822006704082255892",
                "822006751796396062",
                "822006758809665536",
                "822006760164032553",
                "822006770909446165",
                "822006998920069120",
                "822007019904565280",
                "822007036132196383",
                "822007042269118486",
                "822007048417837098",
                "822007098904805396",
                "822007643866398741",
                "822007691853561856",
                "822007704595333150",
                "822007710273896488",
                "822007871071059988",
                "822007925044281395",
                "822007938147287080",
                "822007996459646986",
                "822008050550308864",
                "822008062209425458",
                "822008098670641192",
                "822008134083936257",
                "822008232402223154",
                "822008299120492556",
                "822008488565276693",
                "822008517028216903",
                "822008848642342945",
                "822008862185226250",
                "822009085376593930",
                "822009282333114398",
                "822009482652942376",
                "822010101543862272",
                "822010107285864479",
                "822010119926710293",
                "822010122553262120",
                "822010286613594122",
                "822010344582545450",
                "822010383506079744",
                "822010406498336769",
                "822010425238355968",
                "822010431798247465",
                "822010438308331540",
                "822010445933182976",
                "822010459552874497",
                "822010470989824010",
                "822010492578824203",
                "822010496991100939",
                "822010607397634058",
                "822015645470031892",
                "822015678114037782",
                "822015679434850324",
                "822015688787886121",
                "822015707209793556",
                "822015710024695818",
                "822015714092253214",
                "822015762721931315",
                "822015763669450792",
                "822015779116417024",
                "822015803209154601",
                "822015803498299423",
                "822015829242806293",
                "822015830903881740",
                "822015894628204578",
                "822015895374397450",
                "822017298574737409",
                "822017298801229875",
                "822017299820314634",
                "822017525902213142",
                "822017554394513409",
                "822017668538040320",
                "822017675063590984",
                "822017729695186955",
                "822017735017365525",
                "822017753682411520",
                "822017758714920982",
                "822017822199906346",
                "822018201331564555",
                "822018268360736768",
                "822018452419772456",
                "822019853921157160",
                "822023573874802699",
                "822025719864623106",
                "822025721052266537",
                "822025759232884736",
                "822026668402278421",
                "822027247875653642",
                "822027250592776232",
                "822029390111309824",
                "822032657550540820",
                "822109336515641385",
                "822120576382533652",
                "822125963386290187",
                "822126028494864404",
                "822126690162835516",
                "822149304135319572",
                "822152939396136960",
                "822153254606471238",
                "822175774693654569",
                "822305678227537950",
                "822305686851026974",
                "822305734456377344",
                "822307854391967774",
                "822318272103710752",
                "822401899960729630",
                "822401912360009769",
                "822660529880694815",
                "822660544732332072",
                "822660563213484032",
                "822660576877871104",
                "822660588127518751",
                "822733567896846336",
                "822739826020974592",
                "822739833503875083",
                "822739839098814464",
                "822780405278572564",
                "822784301867204628",
                "822784869934563349",
                "822784938919067648",
                "822785059329015838",
                "822802148185473064",
                "822808167603503114",
                "822836593055629353",
                "822852992691601408",
                "822853044152696844",
                "822853081728417812",
                "822879891019005963",
                "822882554566803518",
                "822882555296350229",
                "822897569091944500",
                "822897625522372618",
                "822903026485559336",
                "822903527952744488",
                "822965573239570453",
                "822965579769315359",
                "822966535643594814",
                "822966536460697630",
                "822966538804920350",
                "822966553456017419",
                "822966554542866492",
                "822967899714879498",
                "822967986762678273",
                "822967987500875817",
                "822967989606285383",
                "822968004739596298",
                "822968005096767529",
                "822981164406931466",
                "822981164959924235",
                "823095761801183274",
                "823095790687485962",
                "823098329365348352",
                "823098372353294436",
                "823098400278446080",
                "823098446189821962",
                "823098446562590760",
                "823098448492494848",
                "823098457387958272",
                "823098483439435827",
                "823098483929514004",
                "823098732706005013",
                "823098733113507842",
                "823098784778027078",
                "823098785139785748",
                "823098829934559233",
                "823098830681407528",
                "823098892639666186",
                "823098892978749440",
                "823099242176053249",
                "823099646720737281",
                "823099647010144297",
                "823099649475870730",
                "823099668762329108",
                "823099669113733150",
                "823100015760244777",
                "823103871961792513",
                "823105362193285142",
                "823105378895396865",
                "823107391338971136",
                "823229509024219136",
                "823512932847058995",
                "823514291113164800",
                "823515198525669396",
                "823577881590235206",
                "823578318838300672",
                "823579125762883584",
                "823579126392684615",
                "823579143979139134",
                "823579145153150986",
                "823671466947117107",
                "823671574518431755",
                "823953489176035378"
            ],
            "createdTimestamp": 1599586640288
        },
        {
            "type": "voice",
            "deleted": false,
            "id": "752945684705050627",
            "name": "MAIN VOICE CHANNEL",
            "rawPosition": 4,
            "parentID": "752945684705050625",
            "permissionOverwrites": [],
            "bitrate": 64000,
            "userLimit": 0,
            "guild": "752945682641322062",
            "createdTimestamp": 1599586640288
        },
        {
            "type": "category",
            "deleted": false,
            "id": "752954959602909194",
            "name": "admin category",
            "rawPosition": 3,
            "parentID": null,
            "permissionOverwrites": [],
            "guild": "752945682641322062",
            "createdTimestamp": 1599588851596
        },
        {
            "type": "text",
            "deleted": false,
            "id": "752955022744092684",
            "name": "admin-channel",
            "rawPosition": 5,
            "parentID": "752954959602909194",
            "permissionOverwrites": [
                "752945682641322062"
            ],
            "topic": null,
            "lastMessageID": "809795394820505621",
            "rateLimitPerUser": 0,
            "lastPinTimestamp": null,
            "guild": "752945682641322062",
            "messages": [],
            "nsfw": false,
            "createdTimestamp": 1599588866650
        },
        {
            "type": "text",
            "deleted": false,
            "id": "752955090008145991",
            "name": "bot-request",
            "rawPosition": 2,
            "parentID": "752945684705050624",
            "permissionOverwrites": [],
            "topic": null,
            "lastMessageID": "824191841775517726",
            "rateLimitPerUser": 0,
            "lastPinTimestamp": null,
            "guild": "752945682641322062",
            "messages": [
                "817782018300444672",
                "817785314654814220",
                "817785317922045982",
                "817785626820214884",
                "817786555656568832",
                "817786570156539926",
                "817786964392148992",
                "817787300926455848",
                "817787317263138898",
                "817787348493664266",
                "817787405187678228",
                "817787448724684840",
                "817789515884003388",
                "817789743189196841",
                "817789755751268354",
                "817789773015023616",
                "817789798961905664",
                "817789814953738260",
                "817812847245524992",
                "817812878031585332",
                "817812893504372816",
                "817812939712757801",
                "817812956518940732",
                "817812966623019008",
                "817812979956711445",
                "817812995878027266",
                "817813003029315656",
                "817813011775488072",
                "817813261029736448",
                "817813307851407440",
                "817813307984576552",
                "817813313747419156",
                "817813419939332118",
                "817813577754214441",
                "817813596536701028",
                "817813606808289320",
                "817813742007746571",
                "817829093970149387",
                "818225685049901078",
                "818225685490958346",
                "818225687965990992",
                "818225694890393621",
                "818225695011766273",
                "818225844832698428",
                "818225845155528764",
                "818225845520433213",
                "818227717220335698",
                "818227718037700641",
                "818227719845707776",
                "818227732806762556",
                "818227733213216798",
                "818228708351017001",
                "818228711471316992",
                "818228720241737778",
                "818228720501260310",
                "818230202575355906",
                "818230417807114321",
                "818230418053660693",
                "818230420210057236",
                "818230479635218452",
                "818230482256265276",
                "818230492918317116",
                "818230493585735682",
                "818231368638529536",
                "818231513467584562",
                "818231513865781289",
                "818231516109996082",
                "818231524998643712",
                "818231525345722389",
                "818232732399173643",
                "818233428029341737",
                "818233428519419914",
                "818233431314006036",
                "818233449029828619",
                "818233449256583199",
                "818233481934929921",
                "818233484660179004",
                "818233530542456894",
                "818233533251584000",
                "818233550532902932",
                "818233550838169631",
                "818233576091942974",
                "818233579015241728",
                "818233590844227624",
                "818233591128784937",
                "818234231515906050",
                "818234234740801547",
                "818234248980201512",
                "818234249341435964",
                "818234264486674443",
                "818234267901231124",
                "818234275501441045",
                "818234276197564456",
                "818239949991444501",
                "818591795243253760",
                "818591798464348210",
                "818591798896492584",
                "818591805192667156",
                "818591805699784764",
                "818591851384799265",
                "818591851832541237",
                "818591855717122138",
                "818592219240857650",
                "818592219866202182",
                "818592225285767200",
                "818592353450721300",
                "818592353907900416",
                "818592357020205068",
                "818592857959038978",
                "818594134926295060",
                "818595140393238529",
                "820386043281801237",
                "820386044498280490",
                "820386045857759242",
                "820386049132986458",
                "820386049632632863",
                "820617993762504746",
                "820617997517324299",
                "820617997491372103",
                "820618001006198824",
                "820618001560371250",
                "820664821736538122",
                "820664865084670003",
                "820664894445715495",
                "821151250006540298",
                "821151253077819412",
                "821151266247540816",
                "821151266579283969",
                "821151412675018793",
                "821151413328805948",
                "821151449089310770",
                "821151449425248306",
                "821154685900947516",
                "821154686076977163",
                "821154714950565889",
                "821154950846742628",
                "821154951245725696",
                "821157262222426175",
                "821450579078414356",
                "821450579515015238",
                "821450581490794506",
                "821450595160424459",
                "821450595646570557",
                "821451941313511464",
                "821452726956458035",
                "821452727825072147",
                "821452729880018945",
                "821452758531964928",
                "821452759429283890",
                "821453724584640576",
                "822084154622738443",
                "822084155293958194",
                "822084157802807336",
                "822084169530081300",
                "822084169794060300",
                "823098937749536768",
                "823098985089728532",
                "823098985518465044",
                "823098990006108190",
                "823098990558969866",
                "823099682606546974",
                "823099733064155176",
                "823948887160913960",
                "823948916742553640",
                "823948934766133249",
                "824185171963805696",
                "824185172836352020",
                "824185174560473150",
                "824185190842368000",
                "824185191236632627",
                "824185232583950346",
                "824185238623354891",
                "824185397458108416",
                "824185446803701760",
                "824185450256269312",
                "824185455373189180",
                "824185455749759016",
                "824185571035447296",
                "824185574247497728",
                "824185590706601995",
                "824185591742070794",
                "824187632036478996",
                "824187635358236743",
                "824187652760535050",
                "824187653481693195",
                "824187703972593685",
                "824187707449671720",
                "824187855890284564",
                "824187858889080882",
                "824187867827666994",
                "824187868079325216",
                "824187922818662450",
                "824187926006857729",
                "824187934898651166",
                "824187935330533386",
                "824187987167674368",
                "824187990829826109",
                "824188011276795905",
                "824188012418170890",
                "824191841775517726"
            ],
            "nsfw": false,
            "createdTimestamp": 1599588882687
        },
        {
            "type": "voice",
            "deleted": false,
            "id": "809790915953819692",
            "name": "MUSIC VOICE CHANNEL",
            "rawPosition": 5,
            "parentID": "752945684705050625",
            "permissionOverwrites": [],
            "bitrate": 64000,
            "userLimit": 0,
            "guild": "752945682641322062",
            "createdTimestamp": 1613139599551
        },
        {
            "type": "voice",
            "deleted": false,
            "id": "810119548124135425",
            "name": "QUIZ VOICE CHANNEL",
            "rawPosition": 6,
            "parentID": "752945684705050625",
            "permissionOverwrites": [],
            "bitrate": 64000,
            "userLimit": 0,
            "guild": "752945682641322062",
            "createdTimestamp": 1613217951566
        },
        {
            "type": "text",
            "deleted": false,
            "id": "810119597839220757",
            "name": "music-quiz",
            "rawPosition": 3,
            "parentID": "752945684705050624",
            "permissionOverwrites": [],
            "topic": null,
            "nsfw": false,
            "lastMessageID": "823230246886047766",
            "rateLimitPerUser": 0,
            "lastPinTimestamp": 1616313024000,
            "guild": "752945682641322062",
            "messages": [
                "823104129957232681",
                "823104139763515422",
                "823104140997689345",
                "823104141408337950",
                "823104168411398154",
                "823104168456617985",
                "823104175536734218",
                "823104210420891678",
                "823104216130256926",
                "823104216029069315",
                "823104216976588800",
                "823104217408602152",
                "823105153539244032",
                "823105153519321099",
                "823105192542863390",
                "823105195222761482",
                "823105198222213162",
                "823105199148105778",
                "823105199521923093",
                "823105234749882368",
                "823105235101679667",
                "823105236372684802",
                "823105290534780988",
                "823105296984571915",
                "823105364404207626",
                "823105377154760755",
                "823105411477536788",
                "823105411853975583",
                "823105500706635776",
                "823105501159489616",
                "823105508390862890",
                "823105542498025512",
                "823105550660403232",
                "823105568151306241",
                "823105591760388118",
                "823105592314036234",
                "823105594491666472",
                "823105623532765224",
                "823105634076852244",
                "823105639604551701",
                "823105639928561664",
                "823105648303800320",
                "823105654402842635",
                "823105655106961428",
                "823105697092075530",
                "823105706437378048",
                "823105714963611648",
                "823105728943751168",
                "823105815002480683",
                "823105815387963413",
                "823105846322003990",
                "823105877543354378",
                "823105896015855666",
                "823105898448420864",
                "823105898720264222",
                "823105902814822430",
                "823105939182714880",
                "823105959516831774",
                "823105959891042344",
                "823106020062527510",
                "823106038063693844",
                "823106126908358677",
                "823106131203063809",
                "823106133576253463",
                "823106133778497557",
                "823106173037314069",
                "823106173724262411",
                "823106174148280320",
                "823106175406571580",
                "823106186554769418",
                "823106242251325441",
                "823106243157688330",
                "823106287449276448",
                "823106288011444234",
                "823106345451520000",
                "823106364297314314",
                "823106438742016000",
                "823106439069302805",
                "823106482836471808",
                "823106517124907039",
                "823106559180800040",
                "823106559710199809",
                "823106615296262144",
                "823106631193591808",
                "823106642533941259",
                "823106643612925952",
                "823106646720512030",
                "823106654643945483",
                "823106655042273291",
                "823106767885959178",
                "823106768221372456",
                "823106817139539978",
                "823106817445199922",
                "823106921342697472",
                "823106923103518794",
                "823106936027086869",
                "823106939952037889",
                "823106940967845889",
                "823106957581352971",
                "823106958240382976",
                "823106987348590612",
                "823106989957054515",
                "823106990300463126",
                "823106996261748736",
                "823107011368845322",
                "823107016351809536",
                "823107022941192223",
                "823107023021015051",
                "823107023615819796",
                "823107037793615892",
                "823107061940093018",
                "823107067811987516",
                "823107092348272660",
                "823107092650393606",
                "823107100980150272",
                "823107130277101608",
                "823107136518619206",
                "823107136849838121",
                "823107183919104011",
                "823107251123650561",
                "823107253263401001",
                "823107261106225183",
                "823107271919665204",
                "823107275438424094",
                "823107295726141442",
                "823107296120668180",
                "823107369563062313",
                "823107370275962891",
                "823107483203272744",
                "823107486055399485",
                "823107498185588777",
                "823107498843832351",
                "823107501133791232",
                "823107526626246677",
                "823107711326879754",
                "823107722047651850",
                "823107731329253407",
                "823107736896143370",
                "823107737197084692",
                "823107775659638785",
                "823107776154828800",
                "823107776669810728",
                "823107776582516748",
                "823107777731624971",
                "823163895823990826",
                "823164203996151879",
                "823164204546392094",
                "823164264507637760",
                "823164265178988544",
                "823164265955459082",
                "823229072393240606",
                "823229072465199116",
                "823229169134600253",
                "823229188684513280",
                "823229189209587774",
                "823229193063628800",
                "823229233655709726",
                "823229234066620446",
                "823229246612701215",
                "823229255943979068",
                "823229264911532045",
                "823229268230012977",
                "823229269512683601",
                "823229279713493052",
                "823229284399054849",
                "823229300270039080",
                "823229300999454720",
                "823229304136531979",
                "823229418134044692",
                "823229430205644800",
                "823229436463677500",
                "823229454880079913",
                "823229459741540403",
                "823229460013776936",
                "823229461062615091",
                "823229610920771624",
                "823229610916708355",
                "823229617325998110",
                "823229655178805248",
                "823229661894279200",
                "823229662539808790",
                "823229697876951060",
                "823229698174615594",
                "823229706698227742",
                "823229726742282240",
                "823229731201482772",
                "823229732580491264",
                "823229760124878858",
                "823229760419004486",
                "823229960860336138",
                "823229979624996964",
                "823229998193442816",
                "823230006519791656",
                "823230049124614205",
                "823230050014461952",
                "823230051809886218",
                "823230245640994826",
                "823230246022807572",
                "823230246127403049",
                "823230246886047766"
            ],
            "createdTimestamp": 1613217963419
        },
        {
            "type": "voice",
            "deleted": false,
            "id": "811586617248186398",
            "name": "Afk",
            "rawPosition": 7,
            "parentID": "752945684705050625",
            "permissionOverwrites": [
                "752945682641322062"
            ],
            "bitrate": 64000,
            "userLimit": 0,
            "guild": "752945682641322062",
            "createdTimestamp": 1613567728102
        },
        {
            "type": "text",
            "deleted": false,
            "id": "813118863935668224",
            "name": "anl-rounds",
            "rawPosition": 4,
            "parentID": "752945684705050624",
            "permissionOverwrites": [],
            "topic": null,
            "nsfw": false,
            "lastMessageID": "824204955757182977",
            "rateLimitPerUser": 0,
            "lastPinTimestamp": null,
            "guild": "752945682641322062",
            "messages": [
                "817774098221629500",
                "817774115066085388",
                "817774133743714304",
                "821732742815285268",
                "821732761052250113",
                "821732763488747561",
                "821732774518980619",
                "821772828676194314",
                "823407401344303154",
                "823407402573103175",
                "823407422420156486",
                "823407423364268032",
                "824204938518986794",
                "824204940930842624",
                "824204955757182977"
            ],
            "createdTimestamp": 1613933044180
        },
        {
            "type": "category",
            "deleted": false,
            "id": "823130229501198397",
            "name": "Gaming",
            "rawPosition": 0,
            "parentID": null,
            "permissionOverwrites": [],
            "guild": "752945682641322062",
            "createdTimestamp": 1616319939733
        },
        {
            "type": "text",
            "deleted": false,
            "id": "823130270366040104",
            "name": "general",
            "rawPosition": 0,
            "parentID": "823130229501198397",
            "permissionOverwrites": [],
            "topic": null,
            "nsfw": false,
            "lastMessageID": "824125804928565268",
            "rateLimitPerUser": 0,
            "lastPinTimestamp": null,
            "guild": "752945682641322062",
            "messages": [
                "823131201211990026",
                "823131201837465611",
                "823184415613517915",
                "823184416070303744",
                "823184435611697162",
                "823184435976601661",
                "823184457707552829",
                "823184458006003712",
                "823206796562137098",
                "823206797015908363",
                "823206831895740456",
                "823206840409915392",
                "823207044030529557",
                "823207044383375360",
                "823207075004940298",
                "823207075558457385",
                "823207100641443841",
                "823207100976595016",
                "823207112514863115",
                "823207113353723925",
                "823207132978479124",
                "823207133390307338",
                "823207171532914699",
                "823207172682153994",
                "823227895714545734",
                "823227927591124993",
                "823316187797913620",
                "823498301269737472",
                "823498310458802197",
                "823498334441570325",
                "823498339466215462",
                "823514256506880010",
                "823514258460639285",
                "823514260666580992",
                "823514267281522718",
                "823514271379226654",
                "823577871851192330",
                "823577872613900349",
                "823577875067306034",
                "823577882324500510",
                "823577882965573734",
                "823577970605686804",
                "823577970966659164",
                "823577973538029608",
                "823577982450008173",
                "823577982751866891",
                "823578022191693844",
                "823578022912458782",
                "823578024070348820",
                "823578057809854464",
                "823578073222873098",
                "823578075622801448",
                "823578092031180871",
                "823578092449824822",
                "823578165023866891",
                "823578167473864765",
                "823578223635202108",
                "823578235064287263",
                "823578235932901396",
                "823578881113194506",
                "823578883542614036",
                "823578897236361246",
                "823578897529569300",
                "823579144796504074",
                "823852523051679744",
                "823955786081370193",
                "824125804928565268"
            ],
            "createdTimestamp": 1616319949476
        },
        {
            "type": "voice",
            "deleted": false,
            "id": "823130298039926845",
            "name": "Audition",
            "rawPosition": 0,
            "parentID": "823130229501198397",
            "permissionOverwrites": [],
            "bitrate": 64000,
            "userLimit": 0,
            "guild": "752945682641322062",
            "createdTimestamp": 1616319956074
        },
        {
            "type": "voice",
            "deleted": false,
            "id": "823130347070816306",
            "name": "Valorant",
            "rawPosition": 2,
            "parentID": "823130229501198397",
            "permissionOverwrites": [],
            "bitrate": 64000,
            "userLimit": 10,
            "guild": "752945682641322062",
            "createdTimestamp": 1616319967764
        },
        {
            "type": "voice",
            "deleted": false,
            "id": "823130411093327872",
            "name": "Phasmophobia",
            "rawPosition": 1,
            "parentID": "823130229501198397",
            "permissionOverwrites": [],
            "bitrate": 64000,
            "userLimit": 10,
            "guild": "752945682641322062",
            "createdTimestamp": 1616319983028
        },
        {
            "type": "voice",
            "deleted": false,
            "id": "823183666171609118",
            "name": "Valorant 2",
            "rawPosition": 3,
            "parentID": "823130229501198397",
            "permissionOverwrites": [],
            "bitrate": 64000,
            "userLimit": 10,
            "guild": "752945682641322062",
            "createdTimestamp": 1616332680028
        },
        {
            "type": "voice",
            "deleted": false,
            "id": "823643084390531072",
            "name": "AFK",
            "rawPosition": 8,
            "parentID": null,
            "permissionOverwrites": [],
            "bitrate": 64000,
            "userLimit": 0,
            "guild": "752945682641322062",
            "createdTimestamp": 1616442213867
        }
    ]
}